{
  "project_info": {
    "project_number": "12160646321",
    "project_id": "activytime",
    "storage_bucket": "activytime.appspot.com"
  },
  "client": [
    {
      "client_info": {
        "mobilesdk_app_id": "1:12160646321:android:7c1f0a5f1ad759c946b690",
        "android_client_info": {
          "package_name": "com.activytime.app"
        }
      },
      "oauth_client": [],
      "api_key": [
        {
          "current_key": "AIzaSyDNHbXk0R6ocLKP-VO5VTMOUY5BPypRG7U"
        }
      ],
      "services": {
        "appinvite_service": {
          "other_platform_oauth_client": []
        }
      }
    }
  ],
  "configuration_version": "1"
}